/Users/aqureshi/Documents/workspace-sts-3.6.3.SR1/grpc/grpc/grpc-client/target/generated-sources/protobuf/java/com/example/demo/services/Data.java
/Users/aqureshi/Documents/workspace-sts-3.6.3.SR1/grpc/grpc/grpc-client/target/generated-sources/protobuf/java/com/example/demo/services/DataOrBuilder.java
/Users/aqureshi/Documents/workspace-sts-3.6.3.SR1/grpc/grpc/grpc-client/target/generated-sources/protobuf/grpc-java/com/example/demo/services/DataServiceGrpc.java
/Users/aqureshi/Documents/workspace-sts-3.6.3.SR1/grpc/grpc/grpc-client/src/main/java/com/example/demo/DemoApplication.java
/Users/aqureshi/Documents/workspace-sts-3.6.3.SR1/grpc/grpc/grpc-client/target/generated-sources/protobuf/java/com/example/demo/services/DataServiceOuterClass.java
